…
This package is only available on Github for now. Install as follows:

    devtools::install_github("xmarquez/vdem")

You can access the entire V-Dem dataset by typing `VDem_plus`. (Access documentation on the dataset by typing `?VDem_plus`, or typing `vdem_codebook` to access the codebook as a data frame.).

The V-Dem dataset is pretty big; including external variables and identifiers, it has `17604` rows and `3614` columns, which takes up a lot of memory and can be confusing to work with. This package thus makes available the function `extract_vdem`, which allows you to extract a subset of these variables meeting specific criteria. For example, you can just extract the main democracy indices (described in section 1 of the codebook) as follows:

``` r
library(vdem)

main_indices <- extract_vdem(section_number = 1)

main_indices
#> # A tibble: 17,604 x 54
#>    vdem_country_name vdem_country_id vdem_country_text_id  year
#>                <chr>           <dbl>                <chr> <dbl>
#>  1       Afghanistan              36                  AFG  1900
#>  2       Afghanistan              36                  AFG  1901
#>  3       Afghanistan              36                  AFG  1902
#>  4       Afghanistan              36                  AFG  1903
#>  5       Afghanistan              36                  AFG  1904
#>  6       Afghanistan              36                  AFG  1905
#>  7       Afghanistan              36                  AFG  1906
#>  8       Afghanistan              36                  AFG  1907
#>  9       Afghanistan              36                  AFG  1908
#> 10       Afghanistan              36                  AFG  1909
#> # ... with 17,594 more rows, and 50 more variables: GW_country_name <chr>,
#> #   GWn <dbl>, historical_date <date>, codingstart <date>,
#> #   gapstart <date>, gapend <date>, codingend <date>, vdem_cown <dbl>,
#> #   v2x_polyarchy <dbl>, v2x_api <dbl>, v2x_mpi <dbl>, v2x_libdem <dbl>,
#> #   v2x_liberal <dbl>, v2x_partipdem <dbl>, v2x_partip <dbl>,
#> #   v2x_delibdem <dbl>, v2xdl_delib <dbl>, v2x_egaldem <dbl>,
#> #   v2x_egal <dbl>, v2x_polyarchy_codelow <dbl>, v2x_api_codelow <dbl>,
#> #   v2x_mpi_codelow <dbl>, v2x_libdem_codelow <dbl>,
#> #   v2x_liberal_codelow <dbl>, v2x_partipdem_codelow <dbl>,
…
The function `extract_vdem` always returns a `tibble` with all the identifiers in the dataset (country name, id, year, COW code, etc.) plus the requested variables. (You will note that this table includes a couple of identifiers I added, providing information about the membership of the country-year in the [Gleditsch-Ward](http://privatewww.essex.ac.uk/~ksg/statelist.html) state system membership list). You can also specify whether you want the measures of uncertainty included in the dataset (`_codehigh` and `_codelow` confidence interval extremes) returned, or whether certain variable types (e.g., ordinal-scale variables) should be excluded.

It is possible to extract variables whose labels mention certain words. For example, you can extract all the variables that mention "corruption" in the codebook labels:

``` r
corruption_vars <- extract_vdem(label_pattern = "corrupt")

corruption_vars
#> # A tibble: 17,604 x 45
#>    vdem_country_name vdem_country_id vdem_country_text_id  year
#>                <chr>           <dbl>                <chr> <dbl>
#>  1       Afghanistan              36                  AFG  1900
#>  2       Afghanistan              36                  AFG  1901
#>  3       Afghanistan              36                  AFG  1902
#>  4       Afghanistan              36                  AFG  1903
#>  5       Afghanistan              36                  AFG  1904
#>  6       Afghanistan              36                  AFG  1905
#>  7       Afghanistan              36                  AFG  1906
#>  8       Afghanistan              36                  AFG  1907
#>  9       Afghanistan              36                  AFG  1908
#> 10       Afghanistan              36                  AFG  1909
#> # ... with 17,594 more rows, and 41 more variables: GW_country_name <chr>,
#> #   GWn <dbl>, historical_date <date>, codingstart <date>,
#> #   gapstart <date>, gapend <date>, codingend <date>, vdem_cown <dbl>,
#> #   v2x_corr <dbl>, v2x_pubcorr <dbl>, v2x_execorr <dbl>, v2exbribe <dbl>,
#> #   v2excrptps <dbl>, v2lgcrrpt <dbl>, v2jucorrdc <dbl>, v2mecorrpt <dbl>,
#> #   v2x_corr_codelow <dbl>, v2x_pubcorr_codelow <dbl>,
#> #   v2x_execorr_codelow <dbl>, v2exbribe_codelow <dbl>,
#> #   v2excrptps_codelow <dbl>, v2lgcrrpt_codelow <dbl>,
#> #   v2jucorrdc_codelow <dbl>, v2mecorrpt_codelow <dbl>,
…
And here we extract variables that refer to civil society, including "external" ones bundled with the dataset but not produced by the V-Dem project itself:

``` r
civil_society <- extract_vdem(name_pattern = "^v2cl", label_pattern = "civil society", include_external = TRUE)

civil_society
#> # A tibble: 17,604 x 143
#>    vdem_country_name vdem_country_id vdem_country_text_id  year
#>                <chr>           <dbl>                <chr> <dbl>
#>  1       Afghanistan              36                  AFG  1900
#>  2       Afghanistan              36                  AFG  1901
#>  3       Afghanistan              36                  AFG  1902
#>  4       Afghanistan              36                  AFG  1903
#>  5       Afghanistan              36                  AFG  1904
#>  6       Afghanistan              36                  AFG  1905
#>  7       Afghanistan              36                  AFG  1906
#>  8       Afghanistan              36                  AFG  1907
#>  9       Afghanistan              36                  AFG  1908
#> 10       Afghanistan              36                  AFG  1909
#> # ... with 17,594 more rows, and 139 more variables:
#> #   GW_country_name <chr>, GWn <dbl>, historical_date <date>,
#> #   codingstart <date>, gapstart <date>, gapend <date>, codingend <date>,
#> #   vdem_cown <dbl>, v2clacfree <dbl>, v2clrelig <dbl>, v2cltort <dbl>,
#> #   v2clkill <dbl>, v2cltrnslw <dbl>, v2clrspct <dbl>, v2clfmove <dbl>,
#> #   v2cldmovem <dbl>, v2cldmovew <dbl>, v2cldiscm <dbl>, v2cldiscw <dbl>,
#> #   v2clslavem <dbl>, v2clslavef <dbl>, v2clstown <dbl>, v2clprptym <dbl>,
#> #   v2clprptyw <dbl>, v2clacjstm <dbl>, v2clacjstw <dbl>,
#> #   v2clacjust <dbl>, v2clsocgrp <dbl>, v2clrgunev <dbl>,
…
You can use any regular expression you like to search over the variable names or label names. See `?extract_vdem` for all options.

If you need more control over the variables extracted, or need to learn more about them, you can use the codebook:

``` r
vdem_codebook
#> # A tibble: 1,216 x 18
#>    section number          name                          label  type
#>      <int>  <chr>         <chr>                          <chr> <chr>
#>  1       1    1.1 v2x_polyarchy      Electoral democracy index   (D)
#>  2       1    1.2       v2x_api       Additive polyarchy index   (D)
#>  3       1    1.3       v2x_mpi Multiplicative polyarchy index   (D)
#>  4       1    1.4    v2x_libdem        Liberal democracy index   (D)
#>  5       1    1.5   v2x_liberal        Liberal component index   (D)
#>  6       1    1.6 v2x_partipdem  Participatory democracy index   (D)
#>  7       1    1.7    v2x_partip  Participatory component index   (D)
#>  8       1    1.8  v2x_delibdem   Deliberative democracy index   (D)
#>  9       1    1.9   v2xdl_delib   Deliberative component index   (D)
#> 10       1   1.10   v2x_egaldem    Egalitarian democracy index   (D)
#> # ... with 1,206 more rows, and 13 more variables: project_manager <chr>,
#> #   compiler <chr>, question <chr>, clarification <chr>, responses <chr>,
#> #   scale <chr>, aggregation <chr>, note <chr>, ordering <chr>,
#> #   cross_coder <chr>, source <chr>, data_release <chr>, citation <chr>
```

You can use the function `extract_vdem_filter` to exercise finer control over the extraction process. For example, here we extract all variables listed in section 1 of the codebook except component indices:

``` r
extract_vdem_filter(section == 1, !grepl("component index", label))
#> # A tibble: 17,604 x 42
#>    vdem_country_name vdem_country_id vdem_country_text_id  year
#>                <chr>           <dbl>                <chr> <dbl>
#>  1       Afghanistan              36                  AFG  1900
#>  2       Afghanistan              36                  AFG  1901
#>  3       Afghanistan              36                  AFG  1902
#>  4       Afghanistan              36                  AFG  1903
#>  5       Afghanistan              36                  AFG  1904
#>  6       Afghanistan              36                  AFG  1905
#>  7       Afghanistan              36                  AFG  1906
#>  8       Afghanistan              36                  AFG  1907
#>  9       Afghanistan              36                  AFG  1908
#> 10       Afghanistan              36                  AFG  1909
#> # ... with 17,594 more rows, and 38 more variables: GW_country_name <chr>,
#> #   GWn <dbl>, historical_date <date>, codingstart <date>,
#> #   gapstart <date>, gapend <date>, codingend <date>, vdem_cown <dbl>,
#> #   v2x_polyarchy <dbl>, v2x_api <dbl>, v2x_mpi <dbl>, v2x_libdem <dbl>,
#> #   v2x_partipdem <dbl>, v2x_delibdem <dbl>, v2x_egaldem <dbl>,
#> #   v2x_polyarchy_codelow <dbl>, v2x_api_codelow <dbl>,
#> #   v2x_mpi_codelow <dbl>, v2x_libdem_codelow <dbl>,
#> #   v2x_partipdem_codelow <dbl>, v2x_delibdem_codelow <dbl>,
#> #   v2x_egaldem_codelow <dbl>, v2x_polyarchy_codehigh <dbl>,
…
