Contains the Varieties of Democracy (V-Dem) Dataset v. 9 • vdem
…
Accessing the VDem dataset

You can access the entire V-Dem dataset by typing VDem_plus. (Access documentation on the dataset by typing ?VDem_plus, or typing vdem_codebook to access the codebook as a data frame.).

Extracting specific variables by label, section number, etc.

The V-Dem dataset is pretty big; including external variables and identifiers, it has 26884 rows and 3900 columns, which takes up a lot of memory and can be confusing to work with. This package thus makes available the function extract_vdem, which allows you to extract a subset of these variables meeting specific criteria. For example, you can just extract the main democracy indices (described in section 2 of the codebook) as follows:

library(vdem)

main_indices <- extract_vdem(section_number = 2)

main_indices
#> # A tibble: 26,884 x 104
#>    vdem_country_na~ vdem_country_te~ vdem_country_id  year extended_countr~
#>    <chr>            <chr>                      <dbl> <dbl> <chr>           
#>  1 Afghanistan      AFG                           36  1789 Afghanistan     
#>  2 Afghanistan      AFG                           36  1790 Afghanistan     
#>  3 Afghanistan      AFG                           36  1791 Afghanistan     
#>  4 Afghanistan      AFG                           36  1792 Afghanistan     
#>  5 Afghanistan      AFG                           36  1793 Afghanistan     
#>  6 Afghanistan      AFG                           36  1794 Afghanistan     
#>  7 Afghanistan      AFG                           36  1795 Afghanistan     
#>  8 Afghanistan      AFG                           36  1796 Afghanistan     
#>  9 Afghanistan      AFG                           36  1797 Afghanistan     
#> 10 Afghanistan      AFG                           36  1798 Afghanistan     
#> # ... with 26,874 more rows, and 99 more variables: GWn <dbl>,
#> #   historical_date <date>, project <dbl>, historical <int>,
#> #   histname <chr>, codingstart <dbl>, codingend <dbl>,
#> #   codingstart_contemp <dbl>, codingend_contemp <dbl>,
#> #   codingstart_hist <dbl>, codingend_hist <dbl>, gapstart1 <dbl>,
#> #   gapstart2 <dbl>, gapstart3 <dbl>, gapend1 <dbl>, gapend2 <dbl>,
#> #   gapend3 <dbl>, vdem_cown <int>, v2x_polyarchy <dbl>, v2x_libdem <dbl>,
#> #   v2x_partipdem <dbl>, v2x_delibdem <dbl>, v2x_egaldem <dbl>,
#> #   v2x_api <dbl>, v2x_mpi <dbl>, v2x_freexp_altinf <dbl>,
…
The function extract_vdem always returns a tibble with all the identifiers in the dataset (country name, id, year, COW code, etc.) plus the requested variables. (You will note that this table includes a couple of identifiers I added, providing information about the membership of the country-year in the Gleditsch-Ward state system membership list). You can also specify whether you want the measures of uncertainty included in the dataset (_codehigh and _codelow confidence interval extremes) returned, or whether certain variable types (e.g., ordinal-scale variables) should be excluded.

It is possible to extract variables whose labels mention certain words. For example, you can extract all the variables that mention “corruption” in the codebook labels:

corruption_vars <- extract_vdem(label_pattern = "corrupt")

corruption_vars
#> # A tibble: 26,884 x 62
#>    vdem_country_na~ vdem_country_te~ vdem_country_id  year extended_countr~
#>    <chr>            <chr>                      <dbl> <dbl> <chr>           
#>  1 Afghanistan      AFG                           36  1789 Afghanistan     
#>  2 Afghanistan      AFG                           36  1790 Afghanistan     
#>  3 Afghanistan      AFG                           36  1791 Afghanistan     
#>  4 Afghanistan      AFG                           36  1792 Afghanistan     
#>  5 Afghanistan      AFG                           36  1793 Afghanistan     
#>  6 Afghanistan      AFG                           36  1794 Afghanistan     
#>  7 Afghanistan      AFG                           36  1795 Afghanistan     
#>  8 Afghanistan      AFG                           36  1796 Afghanistan     
#>  9 Afghanistan      AFG                           36  1797 Afghanistan     
#> 10 Afghanistan      AFG                           36  1798 Afghanistan     
#> # ... with 26,874 more rows, and 57 more variables: GWn <dbl>,
#> #   historical_date <date>, project <dbl>, historical <int>,
#> #   histname <chr>, codingstart <dbl>, codingend <dbl>,
#> #   codingstart_contemp <dbl>, codingend_contemp <dbl>,
#> #   codingstart_hist <dbl>, codingend_hist <dbl>, gapstart1 <dbl>,
#> #   gapstart2 <dbl>, gapstart3 <dbl>, gapend1 <dbl>, gapend2 <dbl>,
#> #   gapend3 <dbl>, vdem_cown <int>, v2exbribe <dbl>, v2excrptps <dbl>,
#> #   v2lgcrrpt <dbl>, v2jucorrdc <dbl>, v2mecorrpt <dbl>, v3lgcrrpt <dbl>,
#> #   v2xnp_regcorr <dbl>, v2x_corr <dbl>, v2x_execorr <dbl>,
…
And here we extract variables that refer to civil society, including “external” ones bundled with the dataset but not produced by the V-Dem project itself:

civil_society <- extract_vdem(name_pattern = "^v2cl",
                              label_pattern = "civil society",
                              include_external = TRUE)

civil_society
#> # A tibble: 26,884 x 157
#>    vdem_country_na~ vdem_country_te~ vdem_country_id  year extended_countr~
#>    <chr>            <chr>                      <dbl> <dbl> <chr>           
#>  1 Afghanistan      AFG                           36  1789 Afghanistan     
#>  2 Afghanistan      AFG                           36  1790 Afghanistan     
#>  3 Afghanistan      AFG                           36  1791 Afghanistan     
#>  4 Afghanistan      AFG                           36  1792 Afghanistan     
#>  5 Afghanistan      AFG                           36  1793 Afghanistan     
#>  6 Afghanistan      AFG                           36  1794 Afghanistan     
#>  7 Afghanistan      AFG                           36  1795 Afghanistan     
#>  8 Afghanistan      AFG                           36  1796 Afghanistan     
#>  9 Afghanistan      AFG                           36  1797 Afghanistan     
#> 10 Afghanistan      AFG                           36  1798 Afghanistan     
#> # ... with 26,874 more rows, and 152 more variables: GWn <dbl>,
#> #   historical_date <date>, project <dbl>, historical <int>,
#> #   histname <chr>, codingstart <dbl>, codingend <dbl>,
#> #   codingstart_contemp <dbl>, codingend_contemp <dbl>,
#> #   codingstart_hist <dbl>, codingend_hist <dbl>, gapstart1 <dbl>,
#> #   gapstart2 <dbl>, gapstart3 <dbl>, gapend1 <dbl>, gapend2 <dbl>,
#> #   gapend3 <dbl>, vdem_cown <int>, v2clacfree <dbl>, v2clrelig <dbl>,
#> #   v2cltort <dbl>, v2clkill <dbl>, v2cltrnslw <dbl>, v2clrspct <dbl>,
#> #   v2clfmove <dbl>, v2cldmovem <dbl>, v2cldmovew <dbl>, v2cldiscm <dbl>,
…
You can use any regular expression you like to search over the variable names or label names. See ?extract_vdem for all options.

If you need more control over the variables extracted, or need to learn more about them, you can use the codebook:

vdem_codebook
#> # A tibble: 668 x 22
#>    section number name  label type  project_manager additional_vers~
#>      <int> <chr>  <chr> <chr> <chr> <chr>           <chr>           
#>  1       2 2.1.1  v2x_~ Elec~ (D)   Jan Teorell     *_codelow, *_co~
#>  2       2 2.1.2  v2x_~ Libe~ (D)   Jan Teorell     *_codelow, *_co~
#>  3       2 2.1.3  v2x_~ Part~ (D)   Jan Teorell     *_codelow, *_co~
#>  4       2 2.1.4  v2x_~ Deli~ (D)   Jan Teorell     *_codelow, *_co~
#>  5       2 2.1.5  v2x_~ Egal~ (D)   Rachel Sigman,~ *_codelow, *_co~
#>  6       2 2.2.1  v2x_~ Addi~ (D)   Jan Teorell     *_codelow, *_co~
#>  7       2 2.2.2  v2x_~ Mult~ (D)   Jan Teorell     *_codelow, *_co~
#>  8       2 2.2.3  v2x_~ Free~ (D)   Svend-Erik Ska~ *_codelow, *_co~
#>  9       2 2.2.4  v2x_~ Free~ (D)   Allen Hicken, ~ *_codelow, *_co~
#> 10       2 2.2.5  v2x_~ Shar~ (D)   Svend-Erik Ska~ <NA>            
#> # ... with 658 more rows, and 15 more variables: available_versions <chr>,
#> #   question <chr>, clarification <chr>, responses <chr>,
#> #   answer_type <chr>, scale <chr>, ordering <chr>, aggregation <chr>,
#> #   cross_coder <chr>, data_release <chr>, source <chr>, cleaning <chr>,
#> #   citation <chr>, years <chr>, note <chr>

You can use the function extract_vdem_filter to exercise finer control over the extraction process. For example, here we extract all variables listed in section 2 of the codebook except component indices:

extract_vdem_filter(section == 2, !grepl("component index", label))
#> # A tibble: 26,884 x 92
#>    vdem_country_na~ vdem_country_te~ vdem_country_id  year extended_countr~
#>    <chr>            <chr>                      <dbl> <dbl> <chr>           
#>  1 Afghanistan      AFG                           36  1789 Afghanistan     
#>  2 Afghanistan      AFG                           36  1790 Afghanistan     
#>  3 Afghanistan      AFG                           36  1791 Afghanistan     
#>  4 Afghanistan      AFG                           36  1792 Afghanistan     
#>  5 Afghanistan      AFG                           36  1793 Afghanistan     
#>  6 Afghanistan      AFG                           36  1794 Afghanistan     
#>  7 Afghanistan      AFG                           36  1795 Afghanistan     
#>  8 Afghanistan      AFG                           36  1796 Afghanistan     
#>  9 Afghanistan      AFG                           36  1797 Afghanistan     
#> 10 Afghanistan      AFG                           36  1798 Afghanistan     
#> # ... with 26,874 more rows, and 87 more variables: GWn <dbl>,
#> #   historical_date <date>, project <dbl>, historical <int>,
#> #   histname <chr>, codingstart <dbl>, codingend <dbl>,
#> #   codingstart_contemp <dbl>, codingend_contemp <dbl>,
#> #   codingstart_hist <dbl>, codingend_hist <dbl>, gapstart1 <dbl>,
#> #   gapstart2 <dbl>, gapstart3 <dbl>, gapend1 <dbl>, gapend2 <dbl>,
#> #   gapend3 <dbl>, vdem_cown <int>, v2x_polyarchy <dbl>, v2x_libdem <dbl>,
#> #   v2x_partipdem <dbl>, v2x_delibdem <dbl>, v2x_egaldem <dbl>,
#> #   v2x_api <dbl>, v2x_mpi <dbl>, v2x_freexp_altinf <dbl>,
…
